\relax 
\providecommand\hyper@newdestlabel[2]{}
\providecommand\HyperFirstAtBeginDocument{\AtBeginDocument}
\HyperFirstAtBeginDocument{\ifx\hyper@anchor\@undefined
\global\let\oldcontentsline\contentsline
\gdef\contentsline#1#2#3#4{\oldcontentsline{#1}{#2}{#3}}
\global\let\oldnewlabel\newlabel
\gdef\newlabel#1#2{\newlabelxx{#1}#2}
\gdef\newlabelxx#1#2#3#4#5#6{\oldnewlabel{#1}{{#2}{#3}}}
\AtEndDocument{\ifx\hyper@anchor\@undefined
\let\contentsline\oldcontentsline
\let\newlabel\oldnewlabel
\fi}
\fi}
\global\let\hyper@last\relax 
\gdef\HyperFirstAtBeginDocument#1{#1}
\providecommand\HyField@AuxAddToFields[1]{}
\providecommand\HyField@AuxAddToCoFields[2]{}
\catcode `"\active 
\catcode `<\active 
\catcode `>\active 
\@nameuse{es@quoting}
\@writefile{toc}{\beamer@endinputifotherversion {3.24pt}}
\@writefile{nav}{\beamer@endinputifotherversion {3.24pt}}
\select@language{spanish}
\@writefile{toc}{\select@language{spanish}}
\@writefile{lof}{\select@language{spanish}}
\@writefile{lot}{\select@language{spanish}}
\@writefile{nav}{\headcommand {\slideentry {0}{0}{1}{1/1}{}{0}}}
\@writefile{nav}{\headcommand {\beamer@framepages {1}{1}}}
\@writefile{toc}{\beamer@sectionintoc {1}{Introduction}{2}{0}{1}}
\@writefile{nav}{\headcommand {\sectionentry {1}{Introduction}{2}{Introduction}{0}}}
\@writefile{nav}{\headcommand {\beamer@sectionpages {1}{1}}}
\@writefile{nav}{\headcommand {\beamer@subsectionpages {1}{1}}}
\@writefile{nav}{\headcommand {\slideentry {1}{0}{2}{2/2}{}{0}}}
\@writefile{nav}{\headcommand {\beamer@framepages {2}{2}}}
\@writefile{nav}{\headcommand {\slideentry {1}{0}{3}{3/3}{}{0}}}
\@writefile{nav}{\headcommand {\beamer@framepages {3}{3}}}
\@writefile{nav}{\headcommand {\slideentry {1}{0}{4}{4/5}{}{0}}}
\@writefile{nav}{\headcommand {\beamer@framepages {4}{5}}}
\@writefile{toc}{\beamer@sectionintoc {2}{Marco teorico}{6}{0}{2}}
\@writefile{nav}{\headcommand {\sectionentry {2}{Marco teorico}{6}{Marco teorico}{0}}}
\@writefile{nav}{\headcommand {\beamer@sectionpages {2}{5}}}
\@writefile{nav}{\headcommand {\beamer@subsectionpages {2}{5}}}
\@writefile{nav}{\headcommand {\slideentry {2}{0}{5}{6/6}{}{0}}}
\@writefile{nav}{\headcommand {\beamer@framepages {6}{6}}}
\@writefile{nav}{\headcommand {\slideentry {2}{0}{6}{7/9}{}{0}}}
\@writefile{nav}{\headcommand {\beamer@framepages {7}{9}}}
\@writefile{nav}{\headcommand {\slideentry {2}{0}{7}{10/10}{}{0}}}
\@writefile{nav}{\headcommand {\beamer@framepages {10}{10}}}
\@writefile{nav}{\headcommand {\slideentry {2}{0}{8}{11/11}{}{0}}}
\@writefile{nav}{\headcommand {\beamer@framepages {11}{11}}}
\@writefile{nav}{\headcommand {\slideentry {2}{0}{9}{12/15}{}{0}}}
\@writefile{nav}{\headcommand {\beamer@framepages {12}{15}}}
\@writefile{nav}{\headcommand {\slideentry {2}{0}{10}{16/16}{}{0}}}
\@writefile{nav}{\headcommand {\beamer@framepages {16}{16}}}
\@writefile{nav}{\headcommand {\slideentry {2}{0}{11}{17/22}{}{0}}}
\@writefile{nav}{\headcommand {\beamer@framepages {17}{22}}}
\@writefile{nav}{\headcommand {\slideentry {2}{0}{12}{23/25}{}{0}}}
\@writefile{nav}{\headcommand {\beamer@framepages {23}{25}}}
\@writefile{nav}{\headcommand {\slideentry {2}{0}{13}{26/26}{}{0}}}
\@writefile{nav}{\headcommand {\beamer@framepages {26}{26}}}
\@writefile{nav}{\headcommand {\slideentry {2}{0}{14}{27/27}{}{0}}}
\@writefile{nav}{\headcommand {\beamer@framepages {27}{27}}}
\@writefile{toc}{\beamer@sectionintoc {3}{Planteamiento del Problema}{28}{0}{3}}
\@writefile{nav}{\headcommand {\sectionentry {3}{Planteamiento del Problema}{28}{Planteamiento del Problema}{0}}}
\@writefile{nav}{\headcommand {\beamer@sectionpages {6}{27}}}
\@writefile{nav}{\headcommand {\beamer@subsectionpages {6}{27}}}
\@writefile{nav}{\headcommand {\slideentry {3}{0}{15}{28/30}{}{0}}}
\@writefile{nav}{\headcommand {\beamer@framepages {28}{30}}}
\@writefile{nav}{\headcommand {\slideentry {3}{0}{16}{31/34}{}{0}}}
\@writefile{nav}{\headcommand {\beamer@framepages {31}{34}}}
\@writefile{nav}{\headcommand {\slideentry {3}{0}{17}{35/35}{}{0}}}
\@writefile{nav}{\headcommand {\beamer@framepages {35}{35}}}
\@writefile{nav}{\headcommand {\slideentry {3}{0}{18}{36/49}{}{0}}}
\@writefile{nav}{\headcommand {\beamer@framepages {36}{49}}}
\@writefile{nav}{\headcommand {\slideentry {3}{0}{19}{50/57}{}{0}}}
\@writefile{nav}{\headcommand {\beamer@framepages {50}{57}}}
\@writefile{nav}{\headcommand {\slideentry {3}{0}{20}{58/62}{}{0}}}
\@writefile{nav}{\headcommand {\beamer@framepages {58}{62}}}
\@writefile{nav}{\headcommand {\slideentry {3}{0}{21}{63/65}{}{0}}}
\@writefile{nav}{\headcommand {\beamer@framepages {63}{65}}}
\@writefile{nav}{\headcommand {\slideentry {3}{0}{22}{66/68}{}{0}}}
\@writefile{nav}{\headcommand {\beamer@framepages {66}{68}}}
\@writefile{nav}{\headcommand {\slideentry {3}{0}{23}{69/69}{}{0}}}
\@writefile{nav}{\headcommand {\beamer@framepages {69}{69}}}
\@writefile{nav}{\headcommand {\slideentry {3}{0}{24}{70/72}{}{0}}}
\@writefile{nav}{\headcommand {\beamer@framepages {70}{72}}}
\@writefile{nav}{\headcommand {\slideentry {3}{0}{25}{73/77}{}{0}}}
\@writefile{nav}{\headcommand {\beamer@framepages {73}{77}}}
\@writefile{nav}{\headcommand {\slideentry {3}{0}{26}{78/81}{}{0}}}
\@writefile{nav}{\headcommand {\beamer@framepages {78}{81}}}
\@writefile{nav}{\headcommand {\slideentry {3}{0}{27}{82/85}{}{0}}}
\@writefile{nav}{\headcommand {\beamer@framepages {82}{85}}}
\@writefile{nav}{\headcommand {\slideentry {3}{0}{28}{86/90}{}{0}}}
\@writefile{nav}{\headcommand {\beamer@framepages {86}{90}}}
\@writefile{nav}{\headcommand {\slideentry {3}{0}{29}{91/91}{}{0}}}
\@writefile{nav}{\headcommand {\beamer@framepages {91}{91}}}
\@writefile{nav}{\headcommand {\slideentry {3}{0}{30}{92/97}{}{0}}}
\@writefile{nav}{\headcommand {\beamer@framepages {92}{97}}}
\@writefile{nav}{\headcommand {\slideentry {3}{0}{31}{98/98}{}{0}}}
\@writefile{nav}{\headcommand {\beamer@framepages {98}{98}}}
\@writefile{nav}{\headcommand {\slideentry {3}{0}{32}{99/99}{}{0}}}
\@writefile{nav}{\headcommand {\beamer@framepages {99}{99}}}
\@writefile{nav}{\headcommand {\slideentry {3}{0}{33}{100/104}{}{0}}}
\@writefile{nav}{\headcommand {\beamer@framepages {100}{104}}}
\@writefile{nav}{\headcommand {\slideentry {3}{0}{34}{105/107}{}{0}}}
\@writefile{nav}{\headcommand {\beamer@framepages {105}{107}}}
\@writefile{nav}{\headcommand {\slideentry {3}{0}{35}{108/110}{}{0}}}
\@writefile{nav}{\headcommand {\beamer@framepages {108}{110}}}
\@writefile{nav}{\headcommand {\slideentry {3}{0}{36}{111/114}{}{0}}}
\@writefile{nav}{\headcommand {\beamer@framepages {111}{114}}}
\@writefile{nav}{\headcommand {\slideentry {3}{0}{37}{115/120}{}{0}}}
\@writefile{nav}{\headcommand {\beamer@framepages {115}{120}}}
\@writefile{nav}{\headcommand {\slideentry {3}{0}{38}{121/123}{}{0}}}
\@writefile{nav}{\headcommand {\beamer@framepages {121}{123}}}
\@writefile{nav}{\headcommand {\slideentry {3}{0}{39}{124/128}{}{0}}}
\@writefile{nav}{\headcommand {\beamer@framepages {124}{128}}}
\@writefile{nav}{\headcommand {\slideentry {3}{0}{40}{129/131}{}{0}}}
\@writefile{nav}{\headcommand {\beamer@framepages {129}{131}}}
\@writefile{nav}{\headcommand {\slideentry {3}{0}{41}{132/132}{}{0}}}
\@writefile{nav}{\headcommand {\beamer@framepages {132}{132}}}
\@writefile{nav}{\headcommand {\slideentry {3}{0}{42}{133/135}{}{0}}}
\@writefile{nav}{\headcommand {\beamer@framepages {133}{135}}}
\@writefile{nav}{\headcommand {\slideentry {3}{0}{43}{136/136}{}{0}}}
\@writefile{nav}{\headcommand {\beamer@framepages {136}{136}}}
\@writefile{nav}{\headcommand {\slideentry {3}{0}{44}{137/141}{}{0}}}
\@writefile{nav}{\headcommand {\beamer@framepages {137}{141}}}
\@writefile{nav}{\headcommand {\slideentry {3}{0}{45}{142/142}{}{0}}}
\@writefile{nav}{\headcommand {\beamer@framepages {142}{142}}}
\@writefile{nav}{\headcommand {\slideentry {3}{0}{46}{143/146}{}{0}}}
\@writefile{nav}{\headcommand {\beamer@framepages {143}{146}}}
\@writefile{nav}{\headcommand {\slideentry {3}{0}{47}{147/153}{}{0}}}
\@writefile{nav}{\headcommand {\beamer@framepages {147}{153}}}
\@writefile{nav}{\headcommand {\slideentry {3}{0}{48}{154/154}{}{0}}}
\@writefile{nav}{\headcommand {\beamer@framepages {154}{154}}}
\@writefile{nav}{\headcommand {\slideentry {3}{0}{49}{155/155}{}{0}}}
\@writefile{nav}{\headcommand {\beamer@framepages {155}{155}}}
\@writefile{nav}{\headcommand {\slideentry {3}{0}{50}{156/156}{}{0}}}
\@writefile{nav}{\headcommand {\beamer@framepages {156}{156}}}
\@writefile{nav}{\headcommand {\slideentry {3}{0}{51}{157/162}{}{0}}}
\@writefile{nav}{\headcommand {\beamer@framepages {157}{162}}}
\@writefile{nav}{\headcommand {\slideentry {3}{0}{52}{163/163}{}{0}}}
\@writefile{nav}{\headcommand {\beamer@framepages {163}{163}}}
\@writefile{nav}{\headcommand {\beamer@partpages {1}{163}}}
\@writefile{nav}{\headcommand {\beamer@subsectionpages {28}{163}}}
\@writefile{nav}{\headcommand {\beamer@sectionpages {28}{163}}}
\@writefile{nav}{\headcommand {\beamer@documentpages {163}}}
\@writefile{nav}{\headcommand {\def \inserttotalframenumber {52}}}
