\beamer@endinputifotherversion {3.24pt}
\select@language {spanish}
\beamer@sectionintoc {1}{Introduction}{2}{0}{1}
\beamer@sectionintoc {2}{Marco teorico}{6}{0}{2}
\beamer@sectionintoc {3}{Planteamiento del Problema}{28}{0}{3}
