\relax 
\providecommand\hyper@newdestlabel[2]{}
\providecommand\zref@newlabel[2]{}
\providecommand\HyperFirstAtBeginDocument{\AtBeginDocument}
\HyperFirstAtBeginDocument{\ifx\hyper@anchor\@undefined
\global\let\oldcontentsline\contentsline
\gdef\contentsline#1#2#3#4{\oldcontentsline{#1}{#2}{#3}}
\global\let\oldnewlabel\newlabel
\gdef\newlabel#1#2{\newlabelxx{#1}#2}
\gdef\newlabelxx#1#2#3#4#5#6{\oldnewlabel{#1}{{#2}{#3}}}
\AtEndDocument{\ifx\hyper@anchor\@undefined
\let\contentsline\oldcontentsline
\let\newlabel\oldnewlabel
\fi}
\fi}
\global\let\hyper@last\relax 
\gdef\HyperFirstAtBeginDocument#1{#1}
\providecommand\HyField@AuxAddToFields[1]{}
\providecommand\HyField@AuxAddToCoFields[2]{}
\catcode `"\active 
\catcode `<\active 
\catcode `>\active 
\@nameuse{es@quoting}
\select@language{spanish}
\@writefile{toc}{\select@language{spanish}}
\@writefile{lof}{\select@language{spanish}}
\@writefile{lot}{\select@language{spanish}}
\@writefile{toc}{\contentsline {chapter}{Resumen}{\es@scroman  {i}}{dummy.1}}
\@writefile{toc}{\vspace  {1em}}
\@writefile{toc}{\contentsline {chapter}{Agradecimientos}{\es@scroman  {ii}}{dummy.2}}
\@writefile{toc}{\vspace  {1em}}
\citation{russell}
\citation{wolfeRussell}
\citation{wolfeRussell}
\citation{wolfeRussell}
\@writefile{toc}{\contentsline {chapter}{\IeC {\'I}ndice de Figuras}{\es@scroman  {v}}{dummy.4}}
\gdef \LT@i {\LT@entry 
    {1}{42.38892pt}\LT@entry 
    {1}{211.71356pt}}
\@writefile{toc}{\contentsline {chapter}{Acr\IeC {\'o}nimos y S\IeC {\'\i }mbolos}{\es@scroman  {vi}}{dummy.6}}
\@writefile{toc}{\vspace  {2em}}
\@writefile{toc}{\contentsline {chapter}{\numberline {1}Introducci\IeC {\'o}n}{1}{chapter.9}}
\@writefile{lof}{\addvspace {10\p@ }}
\@writefile{lot}{\addvspace {10\p@ }}
\newlabel{intro}{{1}{1}{Introducción}{chapter.9}{}}
\@writefile{toc}{\contentsline {chapter}{Introducci\IeC {\'o}n}{1}{chapter.9}}
\citation{wolfeRussell}
\citation{wolfeRussell}
\@writefile{toc}{\contentsline {section}{\numberline {1.1}Antecedentes}{3}{section.10}}
\citation{wolfeRussell}
\citation{favini}
\@writefile{toc}{\contentsline {section}{\numberline {1.2}Objetivos Generales}{4}{section.11}}
\@writefile{toc}{\contentsline {section}{\numberline {1.3}Objetivos Espec\IeC {\'\i }ficos}{5}{section.12}}
\citation{russell}
\citation{forgames}
\@writefile{toc}{\contentsline {chapter}{\numberline {2}Marco Te\IeC {\'o}rico}{6}{chapter.13}}
\@writefile{lof}{\addvspace {10\p@ }}
\@writefile{lot}{\addvspace {10\p@ }}
\newlabel{Marco Teorico}{{2}{6}{Marco Teórico}{chapter.13}{}}
\@writefile{toc}{\contentsline {section}{\numberline {2.1}Juegos suma cero con informaci\IeC {\'o}n completa}{6}{section.14}}
\citation{russell}
\citation{forgames}
\citation{russell}
\citation{forgames}
\@writefile{toc}{\contentsline {section}{\numberline {2.2}Representaci\IeC {\'o}n y Algoritmos Cl\IeC {\'a}sicos para juegos con informaci\IeC {\'o}n completa}{7}{section.15}}
\citation{russell}
\citation{russell}
\citation{russell}
\citation{alphabeta}
\@writefile{lof}{\contentsline {figure}{\numberline {2.1}{\ignorespaces Ejemplo de arbol AND-OR para el juego Tres en Linea \cite  {russell}\relax }}{8}{figure.caption.16}}
\providecommand*\caption@xref[2]{\@setref\relax\@undefined{#1}}
\newlabel{imagen:andor}{{2.1}{8}{Ejemplo de arbol AND-OR para el juego Tres en Linea \cite {russell}\relax }{figure.caption.16}{}}
\citation{scout}
\citation{negascout}
\citation{russell}
\@writefile{toc}{\contentsline {section}{\numberline {2.3}Juegos con informaci\IeC {\'o}n incompleta}{9}{section.17}}
\@writefile{toc}{\contentsline {section}{\numberline {2.4}Representaci\IeC {\'o}n y Algoritmos Cl\IeC {\'a}sicos para juegos con informaci\IeC {\'o}n incompleta}{10}{section.18}}
\@writefile{toc}{\contentsline {section}{\numberline {2.5}Kriegspiel}{11}{section.19}}
\@writefile{toc}{\contentsline {chapter}{\numberline {3}Planteamiento del Problema}{14}{chapter.20}}
\@writefile{lof}{\addvspace {10\p@ }}
\@writefile{lot}{\addvspace {10\p@ }}
\newlabel{capitulo1}{{3}{14}{Planteamiento del Problema}{chapter.20}{}}
\@writefile{toc}{\contentsline {section}{\numberline {3.1}Estructuras}{14}{section.21}}
\citation{wolfeRussell}
\citation{wolfeRussell}
\@writefile{lof}{\contentsline {figure}{\numberline {3.1}{\ignorespaces Ejemplo de estado de creencia con 3 estados f\IeC {\'\i }sicos \cite  {wolfeRussell}\relax }}{15}{figure.caption.22}}
\newlabel{imagen:estadodecreencia}{{3.1}{15}{Ejemplo de estado de creencia con 3 estados físicos \cite {wolfeRussell}\relax }{figure.caption.22}{}}
\citation{wolfeRussell}
\citation{wolfeRussell}
\@writefile{toc}{\contentsline {section}{\numberline {3.2}Algoritmos Cl\IeC {\'a}sicos}{16}{section.24}}
\@writefile{lof}{\contentsline {figure}{\numberline {3.2}{\ignorespaces Ejemplo de un \IeC {\'a}rbol AND-OR-EXPAND \cite  {wolfeRussell}\relax }}{17}{figure.caption.23}}
\newlabel{imagen:andorexpand}{{3.2}{17}{Ejemplo de un árbol AND-OR-EXPAND \cite {wolfeRussell}\relax }{figure.caption.23}{}}
\newlabel{imagen:solvetop}{{\caption@xref {imagen:solvetop}{ on input line 127}}{18}{Algoritmos Clásicos}{figure.caption.25}{}}
\@writefile{lof}{\contentsline {figure}{\numberline {3.3}{\ignorespaces Pseudoc\IeC {\'o}digo de las instancias de SOLVE y SOLVE-TOP.\relax }}{18}{figure.caption.25}}
\newlabel{imagen:solvetop}{{\caption@xref {imagen:solvetop}{ on input line 166}}{19}{Algoritmos Clásicos}{figure.caption.26}{}}
\@writefile{lof}{\contentsline {figure}{\numberline {3.4}{\ignorespaces Pseudoc\IeC {\'o}digo de la instancia OR de EXPAND.\relax }}{19}{figure.caption.26}}
\@writefile{toc}{\contentsline {section}{\numberline {3.3}Algoritmos Incrementales}{20}{section.27}}
\newlabel{imagen:solvetop}{{\caption@xref {imagen:solvetop}{ on input line 252}}{21}{Algoritmos Incrementales}{figure.caption.28}{}}
\@writefile{lof}{\contentsline {figure}{\numberline {3.5}{\ignorespaces Pseudoc\IeC {\'o}digo de la instancia OR de INCREMENTAL-EXPAND y SOLVE-TOP.\relax }}{21}{figure.caption.28}}
\newlabel{imagen:solvetop}{{\caption@xref {imagen:solvetop}{ on input line 305}}{22}{Algoritmos Incrementales}{figure.caption.29}{}}
\@writefile{lof}{\contentsline {figure}{\numberline {3.6}{\ignorespaces Pseudoc\IeC {\'o}digo de las recursiones de DUB.\relax }}{22}{figure.caption.29}}
\@writefile{toc}{\contentsline {section}{\numberline {3.4}Requerimientos Previos}{23}{section.30}}
\@writefile{toc}{\contentsline {chapter}{\numberline {4}Implementaci\IeC {\'o}n}{25}{chapter.31}}
\@writefile{lof}{\addvspace {10\p@ }}
\@writefile{lot}{\addvspace {10\p@ }}
\newlabel{Implementacion}{{4}{25}{Implementación}{chapter.31}{}}
\@writefile{toc}{\contentsline {section}{\numberline {4.1}Representaci\IeC {\'o}n}{25}{section.32}}
\@writefile{toc}{\contentsline {section}{\numberline {4.2}Estados de Creencia}{27}{section.34}}
\@writefile{toc}{\contentsline {section}{\numberline {4.3}Nodos}{28}{section.35}}
\@writefile{toc}{\contentsline {section}{\numberline {4.4}Estimador}{28}{section.36}}
\newlabel{imagen:estimate}{{\caption@xref {imagen:estimate}{ on input line 152}}{29}{Estimador}{figure.caption.37}{}}
\@writefile{lof}{\contentsline {figure}{\numberline {4.1}{\ignorespaces Pseudoc\IeC {\'o}digo de estimate.\relax }}{29}{figure.caption.37}}
\@writefile{toc}{\contentsline {section}{\numberline {4.5}DFS}{29}{section.38}}
\@writefile{toc}{\contentsline {section}{\numberline {4.6}DBU}{31}{section.39}}
\@writefile{toc}{\contentsline {section}{\numberline {4.7}DUB}{32}{section.40}}
\@writefile{toc}{\contentsline {chapter}{\numberline {5}Resultados}{34}{chapter.41}}
\@writefile{lof}{\addvspace {10\p@ }}
\@writefile{lot}{\addvspace {10\p@ }}
\newlabel{Resultados}{{5}{34}{Resultados}{chapter.41}{}}
\@writefile{lot}{\contentsline {table}{\numberline {5.1}{\ignorespaces Valores promedio para las instancias.\relax }}{37}{table.caption.42}}
\newlabel{my-label}{{5.1}{37}{Valores promedio para las instancias.\relax }{table.caption.42}{}}
\citation{wolfeRussell}
\citation{wolfeRussell}
\@writefile{lof}{\contentsline {figure}{\numberline {5.1}{\ignorespaces Resultados en el dataset de profundidad 3.\relax }}{38}{figure.caption.43}}
\newlabel{imagen:graphD3}{{5.1}{38}{Resultados en el dataset de profundidad 3.\relax }{figure.caption.43}{}}
\@writefile{lof}{\contentsline {figure}{\numberline {5.2}{\ignorespaces Resultados en el dataset de profundidad 5.\relax }}{39}{figure.caption.44}}
\newlabel{imagen:graph}{{5.2}{39}{Resultados en el dataset de profundidad 5.\relax }{figure.caption.44}{}}
\@writefile{lof}{\contentsline {figure}{\numberline {5.3}{\ignorespaces Resultados de Berkeley \cite  {wolfeRussell}\relax }}{40}{figure.caption.45}}
\newlabel{imagen:graficapaper}{{5.3}{40}{Resultados de Berkeley \cite {wolfeRussell}\relax }{figure.caption.45}{}}
\bibdata{bibliografia}
\@writefile{toc}{\contentsline {chapter}{\numberline {6}Conclusiones y Recomendaciones}{42}{chapter.46}}
\@writefile{lof}{\addvspace {10\p@ }}
\@writefile{lot}{\addvspace {10\p@ }}
\newlabel{conclusiones}{{6}{42}{Conclusiones y Recomendaciones}{chapter.46}{}}
\newlabel{Bibliography}{{6}{42}{Conclusiones y Recomendaciones}{chapter.46}{}}
\bibcite{wolfeRussell}{{1}{}{{}}{{}}}
\bibcite{favini}{{2}{}{{}}{{}}}
\bibcite{alphabeta}{{3}{}{{}}{{}}}
\bibcite{negascout}{{4}{}{{}}{{}}}
\bibcite{chessmethods}{{5}{}{{}}{{}}}
\bibcite{scout}{{6}{}{{}}{{}}}
\bibcite{russell}{{7}{}{{}}{{}}}
\bibcite{forgames}{{8}{}{{}}{{}}}
\@writefile{toc}{\vspace  {2em}}
\@writefile{toc}{\contentsline {chapter}{\numberline {A}Reglas de Kriegspiel}{44}{appendix.48}}
\@writefile{lof}{\addvspace {10\p@ }}
\@writefile{lot}{\addvspace {10\p@ }}
\newlabel{apendiceA}{{A}{44}{Reglas de Kriegspiel}{appendix.48}{}}
\@writefile{toc}{\contentsline {section}{\numberline {A.1}Movimiento de Piezas}{44}{section.49}}
\@writefile{toc}{\contentsline {section}{\numberline {A.2}El Juez}{45}{section.50}}
\@writefile{toc}{\contentsline {subsection}{\numberline {A.2.1}Legalidad}{45}{subsection.51}}
\@writefile{toc}{\contentsline {subsection}{\numberline {A.2.2}Capturas}{45}{subsection.52}}
\@writefile{toc}{\contentsline {subsection}{\numberline {A.2.3}Jaques}{45}{subsection.53}}
\@writefile{toc}{\contentsline {subsection}{\numberline {A.2.4}Tablas y Jaque Mate}{46}{subsection.54}}
\@writefile{toc}{\contentsline {section}{\numberline {A.3}Condiciones de Tablas y Jaque Mate}{46}{section.55}}
\@writefile{toc}{\contentsline {subsection}{\numberline {A.3.1}Tablas}{46}{subsection.56}}
\@writefile{toc}{\contentsline {subsection}{\numberline {A.3.2}Tablas Materiales}{46}{subsection.57}}
\@writefile{toc}{\contentsline {subsection}{\numberline {A.3.3}Jaque Mate Material}{47}{subsection.58}}
\@writefile{toc}{\contentsline {chapter}{\numberline {B}Notaci\IeC {\'o}n PGN}{48}{appendix.59}}
\@writefile{lof}{\addvspace {10\p@ }}
\@writefile{lot}{\addvspace {10\p@ }}
\newlabel{apendiceB}{{B}{48}{Notación PGN}{appendix.59}{}}
\@writefile{toc}{\contentsline {section}{\numberline {B.1}Cabecera}{48}{section.60}}
\@writefile{toc}{\contentsline {section}{\numberline {B.2}Movimientos}{49}{section.61}}
\@writefile{toc}{\contentsline {section}{\numberline {B.3}Kriegspiel}{49}{section.62}}
\@writefile{toc}{\vspace  {2em}}
\newlabel{imagen:sample}{{\caption@xref {imagen:sample}{ on input line 124}}{52}{Kriegspiel}{figure.caption.63}{}}
\@writefile{lof}{\contentsline {figure}{\numberline {B.1}{\ignorespaces Ejemplo de una instancia de Kriegspiel.\relax }}{52}{figure.caption.63}}
\providecommand\NAT@force@numbers{}\NAT@force@numbers
